<?xml version="1.0" encoding="UTF-8"?>
<svg width="19px" height="19px" viewBox="0 0 19 19" version="1.1" xmlns="http://www.w3.org/2000/svg" xmlns:xlink="http://www.w3.org/1999/xlink">
    <!-- Generator: Sketch 49.3 (51167) - http://www.bohemiancoding.com/sketch -->
    <title></title>
    <desc>Created with Sketch.</desc>
    <defs></defs>
    <g id="Symbols" stroke="none" stroke-width="1" fill="none" fill-rule="evenodd" font-family="FontAwesome" font-size="20" font-weight="normal" letter-spacing="0.162037045">
        <g id="main-nav-logo-white" transform="translate(-1246.000000, -65.000000)" fill="#FFFFFF">
            <g id="main-nav">
                <g id="links" transform="translate(676.000000, 60.000000)">
                    <g id="utility" transform="translate(542.000000, 0.000000)">
                        <text id="">
                            <tspan x="28" y="21"></tspan>
                        </text>
                    </g>
                </g>
            </g>
        </g>
    </g>
</svg>