<?xml version="1.0" encoding="UTF-8"?>
<svg width="29px" height="27px" viewBox="0 0 29 27" version="1.1" xmlns="http://www.w3.org/2000/svg" xmlns:xlink="http://www.w3.org/1999/xlink">
    <!-- Generator: Sketch 49.3 (51167) - http://www.bohemiancoding.com/sketch -->
    <title>Star</title>
    <desc>Created with Sketch.</desc>
    <defs></defs>
    <g id="Desktop---Mockups" stroke="none" stroke-width="1" fill="none" fill-rule="evenodd">
        <g id="Homepage" transform="translate(-227.000000, -1724.000000)" fill="#FFB200">
            <g id="popular-products" transform="translate(130.000000, 1059.000000)">
                <g id="products">
                    <g id="prod-1" transform="translate(0.000000, 182.000000)">
                        <g id="content" transform="translate(0.000000, 395.000000)">
                            <g id="stars" transform="translate(97.000000, 88.000000)">
                                <polygon id="Star" points="14.5 21.75 5.97711384 26.2307464 7.60484026 16.7403732 0.709680514 10.0192536 10.2385569 8.63462679 14.5 0 18.7614431 8.63462679 28.2903195 10.0192536 21.3951597 16.7403732 23.0228862 26.2307464"></polygon>
                            </g>
                        </g>
                    </g>
                </g>
            </g>
        </g>
    </g>
</svg>