<?xml version="1.0" encoding="UTF-8"?>
<svg width="1444px" height="607px" viewBox="0 0 1444 607" version="1.1" xmlns="http://www.w3.org/2000/svg" xmlns:xlink="http://www.w3.org/1999/xlink">
    <!-- Generator: Sketch 49.3 (51167) - http://www.bohemiancoding.com/sketch -->
    <title>shapes</title>
    <desc>Created with Sketch.</desc>
    <defs></defs>
    <g id="Symbols" stroke="none" stroke-width="1" fill="none" fill-rule="evenodd">
        <g id="guides" fill="#FFFFFF">
            <g id="shapes">
                <polygon id="Path-2" opacity="0.0743319746" points="432.185296 0.470094029 0.876887951 0.470094029 0.876887951 423.000153"></polygon>
                <polygon id="Path-3" opacity="0.0766530797" points="3 0 1443.68721 606.886401 1443.68721 1.48426624"></polygon>
            </g>
        </g>
    </g>
</svg>