<?xml version="1.0" encoding="UTF-8"?>
<svg width="28px" height="22px" viewBox="0 0 28 22" version="1.1" xmlns="http://www.w3.org/2000/svg" xmlns:xlink="http://www.w3.org/1999/xlink">
    <!-- Generator: Sketch 49.3 (51167) - http://www.bohemiancoding.com/sketch -->
    <title>twitter-icon</title>
    <desc>Created with Sketch.</desc>
    <defs></defs>
    <g id="Symbols" stroke="none" stroke-width="1" fill="none" fill-rule="evenodd">
        <g id="main-footer" transform="translate(-1234.000000, -287.000000)" fill="#FFFFFF">
            <g id="main-nav" transform="translate(131.000000, 120.000000)">
                <g id="social" transform="translate(1054.000000, 169.000000)">
                    <path d="M76.1205357,1.11607143 C75.3727641,2.2098269 74.4687553,3.14173722 73.4084821,3.91183036 C73.4196429,4.06808114 73.4252232,4.30245379 73.4252232,4.61495536 C73.4252232,6.06585547 73.2131718,7.51394367 72.7890625,8.95926339 C72.3649532,10.4045831 71.7204284,11.791288 70.8554688,13.1194196 C69.9905091,14.4475513 68.9609435,15.6222047 67.7667411,16.6434152 C66.5725387,17.6646256 65.1328209,18.4793496 63.4475446,19.0876116 C61.7622684,19.6958736 59.959831,20 58.0401786,20 C55.0156099,20 52.2477804,19.1908563 49.7366071,17.5725446 C50.1272341,17.6171877 50.5624976,17.6395089 51.0424107,17.6395089 C53.553584,17.6395089 55.7912848,16.8694273 57.7555804,15.3292411 C56.5836995,15.3069195 55.5346028,14.9469901 54.6082589,14.249442 C53.681915,13.5518938 53.0457607,12.6618358 52.6997768,11.5792411 C53.0680822,11.6350449 53.4084806,11.6629464 53.7209821,11.6629464 C54.2008953,11.6629464 54.6752209,11.6015631 55.1439732,11.4787946 C53.893967,11.2220969 52.8588211,10.5998933 52.0385045,9.61216518 C51.2181879,8.62443703 50.8080357,7.4776851 50.8080357,6.171875 L50.8080357,6.10491071 C51.5669681,6.52901998 52.3816921,6.75781233 53.2522321,6.79129464 C52.5156213,6.30022076 51.9296897,5.6584861 51.4944196,4.86607143 C51.0591496,4.07365675 50.8415179,3.21429035 50.8415179,2.28794643 C50.8415179,1.30579866 51.0870511,0.396209542 51.578125,-0.440848214 C52.9285782,1.22210653 54.5719769,2.5530084 56.5083705,3.55189732 C58.4447641,4.55078624 60.5178461,5.10602623 62.7276786,5.21763393 C62.6383924,4.79352467 62.59375,4.38058237 62.59375,3.97879464 C62.59375,2.48325145 63.1210885,1.20815259 64.1757812,0.153459821 C65.230474,-0.901232952 66.5055729,-1.42857143 68.0011161,-1.42857143 C69.5636239,-1.42857143 70.880575,-0.859380692 71.9520089,0.279017857 C73.1685329,0.0446416853 74.3124946,-0.390621819 75.3839286,-1.02678571 C74.9709801,0.256702846 74.1785773,1.24999648 73.0066964,1.953125 C74.044648,1.8415173 75.0825841,1.56250223 76.1205357,1.11607143 Z" id="twitter-icon"></path>
                </g>
            </g>
        </g>
    </g>
</svg>